<?xml version="1.0" standalone="no"?>
<!DOCTYPE svg PUBLIC "-//W3C//DTD SVG 1.1//EN" "http://www.w3.org/Graphics/SVG/1.1/DTD/svg11.dtd" >
<!--
2019-4-28: Created with FontForge (http://fontforge.org)
-->
<svg xmlns="http://www.w3.org/2000/svg" xmlns:xlink="http://www.w3.org/1999/xlink" version="1.1">
<metadata>
Created by FontForge 20170731 at Sun Apr 28 07:08:10 2019
 By root

</metadata>
<defs>
<font id="Flaticon" horiz-adv-x="200" >
  <font-face 
    font-family="Flaticon"
    font-weight="400"
    font-stretch="normal"
    units-per-em="512"
    panose-1="2 0 5 3 0 0 0 0 0 0"
    ascent="448"
    descent="-64"
    bbox="0.0575295 -64.0002 511.943 448.001"
    underline-thickness="25.6"
    underline-position="-51.2"
    unicode-range="U+0020-F100"
  />
    <missing-glyph />
    <glyph glyph-name="space" unicode=" " 
 />
    <glyph glyph-name="001-dog-bone" unicode="&#xf100;" horiz-adv-x="512" 
d="M436.443 372.415c19.5938 0.80957 39.3027 -6.18457 54.2725 -21.0957c28.3799 -28.3779 28.2637 -74.3271 -0.115234 -102.706c-22.4258 -22.4258 -55.4854 -27.4541 -82.9971 -13.9873l-194.258 -194.258c13.4658 -27.5117 8.49609 -60.5713 -13.9297 -82.9971
c-28.3789 -28.3789 -74.2119 -28.5527 -102.591 -0.173828c-14.9697 14.9121 -22.0205 34.7373 -21.2119 54.3301c-19.5928 -0.808594 -39.3594 6.18457 -54.3291 21.1543c-28.3789 28.3779 -28.2637 74.3271 0.115234 102.648
c22.4258 22.4248 55.4854 27.4531 82.9971 13.9863l194.258 194.315c-13.4668 27.5117 -8.43848 60.5723 13.9873 82.9971c28.3779 28.3799 74.2119 28.5527 102.59 0.173828c14.9697 -14.9697 22.0205 -34.7939 21.2119 -54.3877z" />
  </font>
</defs></svg>
